# 
degeneracy_check_override

# In case you want to change the number of bands to be multiple of MPIxPool
# number_bands  6340

# original range
band_index_min   397
band_index_max   460

exact_static_ch  1
screening_semiconductor

cell_average_cutoff  1.0 

begin kpoints
    0.000000    0.000000    0.000000  1.00
end
               
dont_use_vxcdat

use_wfn_hdf5

dont_check_norms

#### In case you want to use pool
number_sigma_pools  NNPOOL

