
 BerkeleyGW version 3.0+git v3.0-211-g429f1d3 by mdelben <mdelben@lbl.gov> at 2022-11-28 13:25:36 -0800
 Epsilon code, Complex version, run on 23-Dec-2022 at 05:18:38 -0800

                                                                 ..o.          
                                                                .oxxo.         
                                                               .oxxxxo...      
                                                               oxxxxxxo.       
                                                              .oxxxxxxx.       
                                                              .ooooooxxo..     
                                                              .oooooooxo..     
                                                              .oooooxxo...     
                                                       .........oxooo......    
                                                 ............................  
                                             ................................. 
                                          .................................... 
           .          ..oo. ....  .................................oooxxxxxxxo.
     .............oxxxx@ox@@@x@x.....................o...........ooooooooooxx. 
    .o.........oox@x.oo........xxx@@............ooxxxxo..........ooooxxxxxoxo  
    .x........x@xxo...............o@xxo........oxxx@@@xoooooooooooooooxxxo...  
    .o......ox@@o..................oox@o.....ooxxx@xoooxxxxxxxoooooooooooo.... 
    o..ooooo@@xoooo....ooo...........x@o.....ooxxxxo   .oxxxxxxxxxxooooooo.... 
    . .oooo@@@@@@@@@@@@@@@@@@@@@@@@@@@@@@....ooooox.     .oxx@@@@@xxoo........ 
      .ooooxxxxxxxooooooxooooooooooooooxo...oooooxx.        ..ox@xxxoo.........
      .ooooooxxxx@xoooooooooooooxxoooooooooooxxxxx.            .oxxooooooooxxo.
     .oooooxxxxx@@@xxxxxxxxxxxxxxxxxxxxxxxxoxxxxo.                .oxxxxxxxxo. 
   ....oooxxxxx@@@xo..oxxx@@@@@@xxxxoxxoooooooxx.                  .oxxxoo..   
  .....ooxxxx@@xo.       ........    .ooooooooxxo                              
  ..oooxxxx@@@o                       .oooooooxoo.                             
  ....oxooxxxxx.                       .ooo..oooo.                             
  .....o.ooxxxxxo.                     .oooooooxo.                             
 ......ooooxxxxxxo.                     .ooooooxoo..                           
........ooxxxxxxxo..                     .o....oxoo...                         
.......ooooxxxxxxxo.                     ........oooo.                         
.ooooooo..ooxxxxoooo.                    .........ooo...                       
..oxo...ooooxxxoooo..                    .ooo......oooo...                     
  .ooooo....o.                            .oxxxoo....ooo....                   
    .oooooo...                              ...ooooo...ooo..                   
       ...                                     .oo.......                      
                                               ....ooo...                      
                      __              __                                       
 ______              [  |            [  |                 ._____  _          _ 
|_   _               | |  _          | |                /  ___ | |        | |
  | |_) | .---.  _. _.| | / |  .---.  | | .---.  _    _ / /    _|   /  / / 
  |  __'./ /__\[ /`_| '' <  / /__\ | |/ /__\|   | | |   _____  /  / /  
 _| |__| | __. | |   | |`  | ___. | || ___.  / /  .___| |    /  /   
|_______/ .__./[_]  [__|  _] .__./[___].__./    /   .____./    /  /    
                                                  / /                          
                                                 /_/                           
 --------------------------------------------------------------------------------
 Please cite the main BerkeleyGW paper when using results from this calculation:

 Jack Deslippe, Georgy Samsonidze, David A. Strubbe, Manish Jain, Marvin L.
 Cohen, and Steven G. Louie, "BerkeleyGW: A Massively Parallel Computer Package
 for the Calculation of the Quasiparticle and Optical Properties of Materials
 and Nanostructures," Comput. Phys. Commun. 183, 1269 (2012)

 Aditionally, PLEASE CITE ALL PAPERS REPORTED AT THE END OF THIS CALCULATION.
 --------------------------------------------------------------------------------

 Running MPI version (parallel)
 Running with 4096 MPI task(s)
 Using OpenMP. Number of threads per MPI task: 16
 Number of threads used for sorting routines: 1

 Compilation flags:
 - Compiler: PGI
 - Para. flags: MPI, OMP
 - Math  flags: USESCALAPACK, UNPACKED, USEFFTW3, HDF5
 - Debug flags: 

 Running with verbosity level 1 (default).

 We will start a new calculation from scratch.

 Experimental Features:
  - FFTs Optimization Level: 0
  - Use HDF5 Parallel IO: T

 
 We`ll perform a uniform sampling of the full BZ.
 
 Computing the static inverse dielectric matrix

 We are using matrix communication scheme

 We are using non-blocking cyclic communication scheme

 Using block algorithm over valence bands

 We are communicating via MPI

 We are using no truncation
 Reading header of WFN.h5
 Highest occupied band (unshifted grid) = 1996
 Valence max    (unshifted grid) = 6.233852 eV
 Conduction min (unshifted grid) = 6.597934 eV
 Middle energy  (unshifted grid) = 6.415893 eV
 Fermi  energy  (unshifted grid) = 6.415893 eV

 Reading header of WFNq.h5
 Highest occupied band (shifted grid) = 1996

 Calculation parameters:
 - Cutoff of the dielectric matrix (Ry): 8.00
 - Total number of bands in the calculation: 29346
 - Number of fully occupied valence bands: 1996
 - Number of partially occ. conduction bands: 0
 - Monkhorst-Pack q-grid for epsilon(q): 1 1 1
 
 Running with 16 valence pools
 Number of conduction bands per processor: 107
 Number of valence bands per processor: 125

 Memory available: 58889.9 MB per PE
 Memory required for execution: 11404.6 MB per PE
 Memory required for vcoul: 0.0 MB per PE

 Valence block alogorithm info
 Max memory allowed per valence block (Gb):    20.00
 Memory for a single valence band (Gb):         0.18
 Number of valence bands per block:             113

 Number of electrons per unit cell (from ifmax) = 3992.000000
 Number of electrons per unit cell (from occupations) = 3992.000000
 Plasma Frequency = 1.218925 Ry

 Reading using H5FD_MPIO_INDEPENDENT.
 Using communication style:  1
 
 Reading using H5FD_MPIO_INDEPENDENT.
 Using communication style:  1
 
 Initializing eps0mat.h5
 - Screened Coulomb cutoff: 8.000 Ry
 - Total number of bands: 29346
 - Number of q-points: 1

 Scissors parameters:
 - Valence:    es =   0.0000 eV, e0 =   0.0000 eV, edel =   0.0000
 - Conduction: es =   0.0000 eV, e0 =   0.0000 eV, edel =   0.0000

 Q0 and |Q0| =  0.000000  0.000000  0.200000  0.024493

 GPU acceleration is : ENABLED
 
 Algorithms used:
 - mtxel         : OPENACC_ALGO
 - chi_summation : OPENACC_ALGO
 
 You have a slightly shifted q0 vector and a semiconductor.
 So, reading from WFNq.
 Reading header of WFNq.h5
 Highest occupied band (shifted grid) = 1996
 Reading using H5FD_MPIO_INDEPENDENT.
 Using communication style:  1
 
 Summary of the WFN files:
 - Number of k-points in WFN: 1
 - Number of k-points in WFNq: 1
 - Number of k-points in the full BZ of WFN: 1

================================================================================
 05:18:47   Dealing with q =  0.000000  0.000000  0.200000                 1 / 1
================================================================================

 This is the special q->0 point.
 Rank of the polarizability matrix (nmtx): 51627
 
 BLACS processor grid:  64 x  64; BLOCKSIZE =   32
 
 Number of k-points in the irreducible BZ(q) (nrk): 1
 
 ========================================================
 == Start Building Polarizability Using:     2 Blocks. ==
 ========================================================
 
 Valence Block Number:     1 of     2
 ------------------------------------
 
 Using GPU support via OpenACC/OMP-Target implementation
 Using batch implementation, batch size:    20
 
 Started calculation of matrix elements with 113 transition(s) at 05:18:48.
 [ 05:18:48 |   0% ] transition   1 / 113.
 [ 05:18:48 |   2% ] transition   3 / 113, remaining: 10 s.
 [ 05:18:49 |  10% ] transition  12 / 113, remaining: 9 s.
 [ 05:18:50 |  19% ] transition  23 / 113, remaining: 8 s.
 [ 05:18:51 |  29% ] transition  34 / 113, remaining: 7 s.
 [ 05:18:52 |  40% ] transition  46 / 113, remaining: 6 s.
 [ 05:18:53 |  50% ] transition  57 / 113, remaining: 5 s.
 [ 05:18:54 |  59% ] transition  68 / 113, remaining: 4 s.
 [ 05:18:55 |  70% ] transition  80 / 113, remaining: 3 s.
 [ 05:18:56 |  80% ] transition  91 / 113, remaining: 2 s.
 [ 05:18:57 |  89% ] transition 102 / 113, remaining: 1 s.
 Finished calculation of matrix elements at 05:18:58.
 Elapsed time: 10 s.
 
 CHI summation GPU algorithm offloading all matrix elements to device.
 
 Started building polarizability matrix with 4096 processor(s) at 05:18:59.
 [ 05:19:00 |   0% ] processor    1 / 4096.
 [ 05:19:00 |   0% ] processor    3 / 4096, remaining: 295 s.
 [ 05:19:05 |  10% ] processor  410 / 4096, remaining: 52 s.
 [ 05:19:11 |  20% ] processor  820 / 4096, remaining: 46 s.
 [ 05:19:17 |  30% ] processor 1229 / 4096, remaining: 41 s.
 [ 05:19:23 |  40% ] processor 1639 / 4096, remaining: 35 s.
 [ 05:19:29 |  50% ] processor 2049 / 4096, remaining: 29 s.
 [ 05:19:34 |  60% ] processor 2458 / 4096, remaining: 23 s.
 [ 05:19:40 |  70% ] processor 2868 / 4096, remaining: 17 s.
 [ 05:19:46 |  80% ] processor 3277 / 4096, remaining: 12 s.
 [ 05:19:52 |  90% ] processor 3687 / 4096, remaining: 6 s.
 Finished building polarizability matrix at 05:19:58.
 Elapsed time: 59 s.
 
 Done With Block Number:     1
 -----------------------------
 
 
 Valence Block Number:     2 of     2
 ------------------------------------
 
 Using GPU support via OpenACC/OMP-Target implementation
 Using batch implementation, batch size:    20
 
 Started calculation of matrix elements with 113 transition(s) at 05:19:59.
 [ 05:19:59 |   0% ] transition   1 / 113.
 [ 05:19:59 |   2% ] transition   3 / 113, remaining: 9 s.
 [ 05:20:00 |  10% ] transition  12 / 113, remaining: 9 s.
 Finished calculation of matrix elements at 05:20:00.
 Elapsed time: 1 s.
 
 CHI summation GPU algorithm offloading all matrix elements to device.
 
 Started building polarizability matrix with 4096 processor(s) at 05:20:08.
 [ 05:20:08 |   0% ] processor    1 / 4096.
 [ 05:20:08 |   0% ] processor    3 / 4096, remaining: 66 s.
 [ 05:20:14 |  10% ] processor  410 / 4096, remaining: 52 s.
 [ 05:20:20 |  20% ] processor  820 / 4096, remaining: 47 s.
 [ 05:20:26 |  30% ] processor 1229 / 4096, remaining: 42 s.
 [ 05:20:33 |  40% ] processor 1639 / 4096, remaining: 37 s.
 [ 05:20:40 |  50% ] processor 2049 / 4096, remaining: 32 s.
 [ 05:20:47 |  60% ] processor 2458 / 4096, remaining: 26 s.
 [ 05:20:54 |  70% ] processor 2868 / 4096, remaining: 20 s.
 [ 05:21:01 |  80% ] processor 3277 / 4096, remaining: 13 s.
 [ 05:21:08 |  90% ] processor 3687 / 4096, remaining: 7 s.
 Finished building polarizability matrix at 05:21:16.
 Elapsed time: 68 s.
 
 Done With Block Number:     2
 -----------------------------
 
 q-pt      1: Head of Epsilon         =     1.416652250097135E+01    5.642101259917930E-18
 q-pt      1: Epsilon(2,2)            =     1.151002087971404E+01    6.265885633537870E-19
 q-pt      1: Head of Epsilon Inverse =     7.899185187719435E-02   -3.276338329230660E-20
 q-pt      1: Epsilon Inverse(2,2)    =     9.665226569824192E-02   -5.088815128426226E-21
 
 For q0 points, you should check the symmetry (eps(G,G') = eps*(-G,-G')) by
 using the eps0sym code. Wavefunction convergence, as well as a finite q-shift
 may cause this property of eps(G,G') to be broken.

 Writing dielectric matrix to file
 Ok


********************************************************************************
*                                                                              *
* Your calculation employed methods and algorithms published in peer-reviewed  *
* papers. Please, cite the following references to give proper credit to their *
*          authors and help support future development of BerkeleyGW.          *
*                                                                              *
********************************************************************************

 J. Deslippe, G. Samsonidze, D. A. Strubbe, M. Jain, M. L. Cohen, and S. G.
 Louie, BerkeleyGW: A Massively Parallel Computer Package for the Calculation
 of the Quasiparticle and Optical Properties of Materials and Nanostructures,
 Computer Physics Communications 183, 1269 (2012).

 M. S. Hybertsen and S. G. Louie, Electron Correlation in Semiconductors and
 Insulators: Band Gaps and Quasiparticle Energies, Phys. Rev. B 34, 5390
 (1986).

********************************************************************************

 
 Timing information
 
                                CPU time (s)          WALL time (s)       Number
 Routine                       min        max        min        max     of calls
 -------------------------  ---------  ---------  ---------  ---------  --------
 - Eps (I/O) Comm                0.07       0.35       0.07       0.35         1
 - Eps (I/O) IO                  3.79       4.05       3.79       4.05         1
 - I/O TOTAL                     6.28       7.19       6.28       7.19         8
 - INPUT                         7.57       7.96       7.56       7.96         1
 - INPUT_Q                       0.66       1.36       0.66       1.36         1
 - FULLBZ                        0.00       0.01       0.00       0.01         1
 - GVEC                          0.01       0.01       0.00       0.01         1
 - SUBGRP                        0.00       0.00       0.00       0.00         1
 - IRRBZ                         0.00       0.01       0.00       0.01         1
 - GENWF                         0.47       0.63       0.47       0.63       125
 - MTXEL                         6.64      11.16       6.64      11.16       125
 - RQSTAR                        0.00       0.00       0.00       0.00         2
 - GMAP                          0.01       0.01       0.01       0.01         2
 - EPSINV (TOTAL)               25.30      37.91      25.30      37.91         1
 - CHI SUM (COMM)               12.50      70.94      12.59      70.86     24576
 - CHI SUM (TOTAL)             125.93     142.50     125.93     142.50         2
 - GENWF (VAL)                   0.34       0.38       0.33       0.39       125
 - GENWF (COND)                  0.12       0.28       0.12       0.28         2
 - EPSINV (VCOUL)                0.00      12.61       0.00      12.61         1
 - JOB SETUP                     0.00       0.02       0.00       0.02         1
 - Q LOOP SETUP                  0.01       0.01       0.01       0.01         1
 - INIT CUTOFF                   0.00       0.00       0.00       0.00         1
 - INIT SCALAPACK                0.08       0.09       0.08       0.09         1
 - INIT ARRAYS                   1.07       1.66       1.07       1.67         3
 - MTXEL (DENOM)                 0.00       0.01       0.00       0.02     13375
 - MTXEL (FFT)                   6.64      11.16       6.64      11.16       125
 - GENWF (Ekin)                  0.01       0.01       0.00       0.01         4
 - GENWF (Sort)                  0.14       0.16       0.14       0.16         4
 - CHI SUM (zGEMM)               0.21       0.28       0.18       0.30      8192
 - CHI SUM (PREP)               45.39      58.39      45.27      58.44      8192
 - CHI SUM (ARRAY ALLOC)         3.83       3.97       3.66       4.08      8192
 - EPSINV (I/O)                  4.22       4.23       4.22       4.23         1
 - EPSINV (INVERT)              20.90      20.92      20.90      20.92         1
 - CHI SUM (BAR)                 0.73      13.14       0.73      13.14         2
 - FFT MLTPLY                    0.65       1.20       0.64       1.21     13375
 - TOTAL                       186.36     186.75     186.36     186.75         1
 
 Job Done
 
