
 BerkeleyGW version 3.0+git v3.0-211-g429f1d3 by mdelben <mdelben@lbl.gov> at 2022-11-28 13:25:36 -0800
 Epsilon code, Complex version, run on 22-Dec-2022 at 23:27:45 -0800

                                                                 ..o.          
                                                                .oxxo.         
                                                               .oxxxxo...      
                                                               oxxxxxxo.       
                                                              .oxxxxxxx.       
                                                              .ooooooxxo..     
                                                              .oooooooxo..     
                                                              .oooooxxo...     
                                                       .........oxooo......    
                                                 ............................  
                                             ................................. 
                                          .................................... 
           .          ..oo. ....  .................................oooxxxxxxxo.
     .............oxxxx@ox@@@x@x.....................o...........ooooooooooxx. 
    .o.........oox@x.oo........xxx@@............ooxxxxo..........ooooxxxxxoxo  
    .x........x@xxo...............o@xxo........oxxx@@@xoooooooooooooooxxxo...  
    .o......ox@@o..................oox@o.....ooxxx@xoooxxxxxxxoooooooooooo.... 
    o..ooooo@@xoooo....ooo...........x@o.....ooxxxxo   .oxxxxxxxxxxooooooo.... 
    . .oooo@@@@@@@@@@@@@@@@@@@@@@@@@@@@@@....ooooox.     .oxx@@@@@xxoo........ 
      .ooooxxxxxxxooooooxooooooooooooooxo...oooooxx.        ..ox@xxxoo.........
      .ooooooxxxx@xoooooooooooooxxoooooooooooxxxxx.            .oxxooooooooxxo.
     .oooooxxxxx@@@xxxxxxxxxxxxxxxxxxxxxxxxoxxxxo.                .oxxxxxxxxo. 
   ....oooxxxxx@@@xo..oxxx@@@@@@xxxxoxxoooooooxx.                  .oxxxoo..   
  .....ooxxxx@@xo.       ........    .ooooooooxxo                              
  ..oooxxxx@@@o                       .oooooooxoo.                             
  ....oxooxxxxx.                       .ooo..oooo.                             
  .....o.ooxxxxxo.                     .oooooooxo.                             
 ......ooooxxxxxxo.                     .ooooooxoo..                           
........ooxxxxxxxo..                     .o....oxoo...                         
.......ooooxxxxxxxo.                     ........oooo.                         
.ooooooo..ooxxxxoooo.                    .........ooo...                       
..oxo...ooooxxxoooo..                    .ooo......oooo...                     
  .ooooo....o.                            .oxxxoo....ooo....                   
    .oooooo...                              ...ooooo...ooo..                   
       ...                                     .oo.......                      
                                               ....ooo...                      
                      __              __                                       
 ______              [  |            [  |                 ._____  _          _ 
|_   _               | |  _          | |                /  ___ | |        | |
  | |_) | .---.  _. _.| | / |  .---.  | | .---.  _    _ / /    _|   /  / / 
  |  __'./ /__\[ /`_| '' <  / /__\ | |/ /__\|   | | |   _____  /  / /  
 _| |__| | __. | |   | |`  | ___. | || ___.  / /  .___| |    /  /   
|_______/ .__./[_]  [__|  _] .__./[___].__./    /   .____./    /  /    
                                                  / /                          
                                                 /_/                           
 --------------------------------------------------------------------------------
 Please cite the main BerkeleyGW paper when using results from this calculation:

 Jack Deslippe, Georgy Samsonidze, David A. Strubbe, Manish Jain, Marvin L.
 Cohen, and Steven G. Louie, "BerkeleyGW: A Massively Parallel Computer Package
 for the Calculation of the Quasiparticle and Optical Properties of Materials
 and Nanostructures," Comput. Phys. Commun. 183, 1269 (2012)

 Aditionally, PLEASE CITE ALL PAPERS REPORTED AT THE END OF THIS CALCULATION.
 --------------------------------------------------------------------------------

 Running MPI version (parallel)
 Running with 2048 MPI task(s)
 Using OpenMP. Number of threads per MPI task: 16
 Number of threads used for sorting routines: 1

 Compilation flags:
 - Compiler: PGI
 - Para. flags: MPI, OMP
 - Math  flags: USESCALAPACK, UNPACKED, USEFFTW3, HDF5
 - Debug flags: 

 Running with verbosity level 1 (default).

 We will start a new calculation from scratch.

 Experimental Features:
  - FFTs Optimization Level: 0
  - Use HDF5 Parallel IO: T

 
 We`ll perform a uniform sampling of the full BZ.
 
 Computing the static inverse dielectric matrix

 We are using matrix communication scheme

 We are using non-blocking cyclic communication scheme

 Using block algorithm over valence bands

 We are communicating via MPI

 We are using no truncation
 Reading header of WFN.h5
 Highest occupied band (unshifted grid) = 1996
 Valence max    (unshifted grid) = 6.233852 eV
 Conduction min (unshifted grid) = 6.597934 eV
 Middle energy  (unshifted grid) = 6.415893 eV
 Fermi  energy  (unshifted grid) = 6.415893 eV

 Reading header of WFNq.h5
 Highest occupied band (shifted grid) = 1996

 Calculation parameters:
 - Cutoff of the dielectric matrix (Ry): 8.00
 - Total number of bands in the calculation: 29346
 - Number of fully occupied valence bands: 1996
 - Number of partially occ. conduction bands: 0
 - Monkhorst-Pack q-grid for epsilon(q): 1 1 1
 
 Running with 12 valence pools
 Number of conduction bands per processor: 161
 Number of valence bands per processor: 167

 Memory available: 59179.0 MB per PE
 Memory required for execution: 11989.5 MB per PE
 Memory required for vcoul: 0.0 MB per PE

 Valence block alogorithm info
 Max memory allowed per valence block (Gb):    20.00
 Memory for a single valence band (Gb):         0.27
 Number of valence bands per block:              75

 Number of electrons per unit cell (from ifmax) = 3992.000000
 Number of electrons per unit cell (from occupations) = 3992.000000
 Plasma Frequency = 1.218925 Ry


 WARNING: The number of cpus does not divide evenly in the optimal number of pools.
 8cpus are doing no work

 Reading using H5FD_MPIO_INDEPENDENT.
 Using communication style:  1
 
 Reading using H5FD_MPIO_INDEPENDENT.
 Using communication style:  1
 
 Initializing eps0mat.h5
 - Screened Coulomb cutoff: 8.000 Ry
 - Total number of bands: 29346
 - Number of q-points: 1

 Scissors parameters:
 - Valence:    es =   0.0000 eV, e0 =   0.0000 eV, edel =   0.0000
 - Conduction: es =   0.0000 eV, e0 =   0.0000 eV, edel =   0.0000

 Q0 and |Q0| =  0.000000  0.000000  0.200000  0.024493

 GPU acceleration is : ENABLED
 
 Algorithms used:
 - mtxel         : OPENACC_ALGO
 - chi_summation : OPENACC_ALGO
 
 You have a slightly shifted q0 vector and a semiconductor.
 So, reading from WFNq.
 Reading header of WFNq.h5
 Highest occupied band (shifted grid) = 1996
 Reading using H5FD_MPIO_INDEPENDENT.
 Using communication style:  1
 
 Summary of the WFN files:
 - Number of k-points in WFN: 1
 - Number of k-points in WFNq: 1
 - Number of k-points in the full BZ of WFN: 1

================================================================================
 23:27:54   Dealing with q =  0.000000  0.000000  0.200000                 1 / 1
================================================================================

 This is the special q->0 point.
 Rank of the polarizability matrix (nmtx): 51627
 
 BLACS processor grid:  32 x  64; BLOCKSIZE =   32
 
 Number of k-points in the irreducible BZ(q) (nrk): 1
 
 ========================================================
 == Start Building Polarizability Using:     3 Blocks. ==
 ========================================================
 
 Valence Block Number:     1 of     3
 ------------------------------------
 
 Using GPU support via OpenACC/OMP-Target implementation
 Using batch implementation, batch size:    20
 
 Started calculation of matrix elements with 75 transition(s) at 23:27:55.
 [ 23:27:55 |   0% ] transition  1 / 75.
 [ 23:27:56 |   3% ] transition  3 / 75, remaining: 9 s.
 [ 23:27:56 |   9% ] transition  8 / 75, remaining: 8 s.
 [ 23:27:57 |  19% ] transition 15 / 75, remaining: 7 s.
 [ 23:27:58 |  29% ] transition 23 / 75, remaining: 6 s.
 [ 23:27:59 |  39% ] transition 30 / 75, remaining: 5 s.
 [ 23:28:00 |  49% ] transition 38 / 75, remaining: 4 s.
 [ 23:28:01 |  59% ] transition 45 / 75, remaining: 4 s.
 [ 23:28:01 |  69% ] transition 53 / 75, remaining: 3 s.
 [ 23:28:02 |  79% ] transition 60 / 75, remaining: 2 s.
 [ 23:28:03 |  89% ] transition 68 / 75, remaining: 1 s.
 [ 23:28:04 |  99% ] transition 75 / 75, remaining: 0 s.
 Finished calculation of matrix elements at 23:28:04.
 Elapsed time: 9 s.
 
 CHI summation GPU algorithm offloading all matrix elements to device.
 
 Started building polarizability matrix with 2048 processor(s) at 23:28:05.
 [ 23:28:06 |   0% ] processor    1 / 2048.
 [ 23:28:06 |   0% ] processor    3 / 2048, remaining: 55 s.
 [ 23:28:11 |  10% ] processor  205 / 2048, remaining: 45 s.
 [ 23:28:16 |  20% ] processor  410 / 2048, remaining: 40 s.
 [ 23:28:21 |  30% ] processor  615 / 2048, remaining: 35 s.
 [ 23:28:26 |  40% ] processor  820 / 2048, remaining: 30 s.
 [ 23:28:31 |  50% ] processor 1025 / 2048, remaining: 25 s.
 [ 23:28:36 |  60% ] processor 1229 / 2048, remaining: 20 s.
 [ 23:28:41 |  70% ] processor 1434 / 2048, remaining: 15 s.
 [ 23:28:46 |  80% ] processor 1639 / 2048, remaining: 10 s.
 [ 23:28:51 |  90% ] processor 1844 / 2048, remaining: 5 s.
 Finished building polarizability matrix at 23:28:56.
 Elapsed time: 51 s.
 
 Done With Block Number:     1
 -----------------------------
 
 
 Valence Block Number:     2 of     3
 ------------------------------------
 
 Using GPU support via OpenACC/OMP-Target implementation
 Using batch implementation, batch size:    20
 
 Started calculation of matrix elements with 75 transition(s) at 23:28:57.
 [ 23:28:57 |   0% ] transition  1 / 75.
 [ 23:28:57 |   3% ] transition  3 / 75, remaining: 8 s.
 [ 23:28:58 |   9% ] transition  8 / 75, remaining: 8 s.
 [ 23:28:59 |  19% ] transition 15 / 75, remaining: 7 s.
 [ 23:29:00 |  29% ] transition 23 / 75, remaining: 6 s.
 [ 23:29:00 |  39% ] transition 30 / 75, remaining: 5 s.
 [ 23:29:01 |  49% ] transition 38 / 75, remaining: 4 s.
 [ 23:29:02 |  59% ] transition 45 / 75, remaining: 4 s.
 [ 23:29:03 |  69% ] transition 53 / 75, remaining: 3 s.
 [ 23:29:04 |  79% ] transition 60 / 75, remaining: 2 s.
 [ 23:29:05 |  89% ] transition 68 / 75, remaining: 1 s.
 [ 23:29:06 |  99% ] transition 75 / 75, remaining: 0 s.
 Finished calculation of matrix elements at 23:29:06.
 Elapsed time: 9 s.
 
 CHI summation GPU algorithm offloading all matrix elements to device.
 
 Started building polarizability matrix with 2048 processor(s) at 23:29:09.
 [ 23:29:10 |   0% ] processor    1 / 2048.
 [ 23:29:10 |   0% ] processor    3 / 2048, remaining: 47 s.
 [ 23:29:15 |  10% ] processor  205 / 2048, remaining: 44 s.
 [ 23:29:20 |  20% ] processor  410 / 2048, remaining: 39 s.
 [ 23:29:25 |  30% ] processor  615 / 2048, remaining: 35 s.
 [ 23:29:30 |  40% ] processor  820 / 2048, remaining: 30 s.
 [ 23:29:35 |  50% ] processor 1025 / 2048, remaining: 25 s.
 [ 23:29:40 |  60% ] processor 1229 / 2048, remaining: 20 s.
 [ 23:29:45 |  70% ] processor 1434 / 2048, remaining: 15 s.
 [ 23:29:50 |  80% ] processor 1639 / 2048, remaining: 10 s.
 [ 23:29:55 |  90% ] processor 1844 / 2048, remaining: 5 s.
 Finished building polarizability matrix at 23:30:00.
 Elapsed time: 51 s.
 
 Done With Block Number:     2
 -----------------------------
 
 
 Valence Block Number:     3 of     3
 ------------------------------------
 
 Using GPU support via OpenACC/OMP-Target implementation
 Using batch implementation, batch size:    20
 
 Started calculation of matrix elements with 75 transition(s) at 23:30:01.
 [ 23:30:01 |   0% ] transition  1 / 75.
 [ 23:30:02 |   3% ] transition  3 / 75, remaining: 9 s.
 [ 23:30:02 |   9% ] transition  8 / 75, remaining: 8 s.
 [ 23:30:03 |  19% ] transition 15 / 75, remaining: 7 s.
 Finished calculation of matrix elements at 23:30:04.
 Elapsed time: 2 s.
 
 CHI summation GPU algorithm offloading all matrix elements to device.
 
 Started building polarizability matrix with 2048 processor(s) at 23:30:04.
 [ 23:30:05 |   0% ] processor    1 / 2048.
 [ 23:30:05 |   0% ] processor    3 / 2048, remaining: 47 s.
 [ 23:30:09 |  10% ] processor  205 / 2048, remaining: 44 s.
 [ 23:30:14 |  20% ] processor  410 / 2048, remaining: 39 s.
 [ 23:30:19 |  30% ] processor  615 / 2048, remaining: 35 s.
 [ 23:30:24 |  40% ] processor  820 / 2048, remaining: 30 s.
 [ 23:30:30 |  50% ] processor 1025 / 2048, remaining: 25 s.
 [ 23:30:35 |  60% ] processor 1229 / 2048, remaining: 20 s.
 [ 23:30:40 |  70% ] processor 1434 / 2048, remaining: 15 s.
 [ 23:30:45 |  80% ] processor 1639 / 2048, remaining: 10 s.
 [ 23:30:50 |  90% ] processor 1844 / 2048, remaining: 5 s.
 Finished building polarizability matrix at 23:30:55.
 Elapsed time: 51 s.
 
 Done With Block Number:     3
 -----------------------------
 
 q-pt      1: Head of Epsilon         =     1.416652250097135E+01    1.160348285894105E-17
 q-pt      1: Epsilon(2,2)            =     1.151002087971401E+01   -2.817360373724105E-19
 q-pt      1: Head of Epsilon Inverse =     7.899185187719433E-02   -6.891986145730571E-20
 q-pt      1: Epsilon Inverse(2,2)    =     9.665226569824217E-02    1.568334441400540E-21
 
 For q0 points, you should check the symmetry (eps(G,G') = eps*(-G,-G')) by
 using the eps0sym code. Wavefunction convergence, as well as a finite q-shift
 may cause this property of eps(G,G') to be broken.

 Writing dielectric matrix to file
 Ok


********************************************************************************
*                                                                              *
* Your calculation employed methods and algorithms published in peer-reviewed  *
* papers. Please, cite the following references to give proper credit to their *
*          authors and help support future development of BerkeleyGW.          *
*                                                                              *
********************************************************************************

 J. Deslippe, G. Samsonidze, D. A. Strubbe, M. Jain, M. L. Cohen, and S. G.
 Louie, BerkeleyGW: A Massively Parallel Computer Package for the Calculation
 of the Quasiparticle and Optical Properties of Materials and Nanostructures,
 Computer Physics Communications 183, 1269 (2012).

 M. S. Hybertsen and S. G. Louie, Electron Correlation in Semiconductors and
 Insulators: Band Gaps and Quasiparticle Energies, Phys. Rev. B 34, 5390
 (1986).

********************************************************************************

 
 Timing information
 
                                CPU time (s)          WALL time (s)       Number
 Routine                       min        max        min        max     of calls
 -------------------------  ---------  ---------  ---------  ---------  --------
 - Eps (I/O) Comm                0.04       0.15       0.04       0.15         1
 - Eps (I/O) IO                  2.53       2.61       2.53       2.61         1
 - I/O TOTAL                     5.07       6.02       5.07       6.02         8
 - INPUT                         6.89       7.11       6.89       7.11         1
 - INPUT_Q                       0.78       1.49       0.78       1.49         1
 - FULLBZ                        0.00       0.01       0.00       0.01         1
 - GVEC                          0.01       0.01       0.00       0.01         1
 - SUBGRP                        0.00       0.00       0.00       0.00         1
 - IRRBZ                         0.00       0.00       0.00       0.00         1
 - GENWF                         0.00       1.06       0.00       1.06       167
 - MTXEL                         0.00      20.04       0.00      20.04       167
 - RQSTAR                        0.00       0.00       0.00       0.00         3
 - GMAP                          0.01       0.01       0.01       0.01         3
 - EPSINV (TOTAL)               23.42      25.37      23.42      25.37         1
 - CHI SUM (COMM)               25.45     138.65      25.46     138.69     18432
 - CHI SUM (TOTAL)             156.64     180.08     156.64     180.08         3
 - GENWF (VAL)                   0.00       0.52       0.00       0.53       167
 - GENWF (COND)                  0.00       0.57       0.00       0.57         3
 - EPSINV (VCOUL)                0.00       1.95       0.00       1.96         1
 - JOB SETUP                     0.00       0.02       0.00       0.02         1
 - Q LOOP SETUP                  0.01       0.01       0.01       0.01         1
 - INIT CUTOFF                   0.00       0.00       0.00       0.00         1
 - INIT SCALAPACK                0.05       0.05       0.05       0.05         1
 - INIT ARRAYS                   0.79       2.03       0.79       2.02         4
 - MTXEL (DENOM)                 0.00       0.01       0.00       0.03     26887
 - MTXEL (FFT)                   0.00      20.04       0.00      20.04       167
 - GENWF (Ekin)                  0.00       0.01       0.00       0.01         6
 - GENWF (Sort)                  0.00       0.23       0.00       0.23         6
 - CHI SUM (zGEMM)               0.00      48.71       0.00      48.74      6144
 - CHI SUM (PREP)                0.44      52.93       0.42      52.98      6144
 - CHI SUM (ARRAY ALLOC)         5.64       6.97       5.61       6.99      6144
 - EPSINV (I/O)                  2.76       2.76       2.76       2.76         1
 - EPSINV (INVERT)              20.33      20.36      20.33      20.36         1
 - CHI SUM (BAR)                 1.17      26.57       1.17      26.57         3
 - FFT MLTPLY                    0.00       2.38       0.00       2.38     26887
 - TOTAL                       213.81     214.03     213.81     214.03         1
 
 Job Done
 
